{
  "iisSettings": {
    "windowsAuthentication": false,
    "anonymousAuthentication": true
  },
  "profiles": {
    "Development": {
      "commandName": "Project",
      "launchBrowser": true,
      "launchUrl": "swagger",
      "environmentVariables": {
        "ASPNETCORE_ENVIRONMENT": "Development"
      },
      "applicationUrl": "http://localhost:8010/"
    },
    "QA": {
      "commandName": "Project",
      "launchBrowser": true,
      "launchUrl": "swagger",
      "environmentVariables": {
        "ASPNETCORE_ENVIRONMENT": "QA"
      },
      "applicationUrl": "http://localhost:8010/"
    }
  }
}